…
#> # Structure: group = coupleID, member = personID, role = gender
#> #
#> # Dyad compositions:
#> # female_x_male distinguishable 95 dyads
#> #
#> # Added columns:
#> #   .dy_composition       inferred dyad composition
#> #   .dy_composition_role  composition-specific member role
#> #   .dy_is_{comp-role}    composition-role indicator columns
#> #   .dy_{pred}_actor      APIM actor predictor: actor's original predictor
#> #                         values
#> #   .dy_{pred}_partner    APIM partner predictor: partner's original predictor
#> #                         values
#> #
#> # A tibble: 190 × 11
#>   personID coupleID gender communication satisfaction .dy_composition
#>      <int>    <int> <fct>          <dbl>        <dbl> <fct>         
#> 1        1        1 female          4.79         4.37 female_x_male 
#> 2        2        1 male            3.80         2.34 female_x_male 
#> 3        3        2 female          2.91         2.44 female_x_male 
#> 4        4        2 male            6.51         6.08 female_x_male 
#> # ℹ 186 more rows
#> # ℹ 5 more variables: .dy_composition_role <fct>,
#> #   .dy_is_female_x_male_female <dbl>, .dy_is_female_x_male_male <dbl>,
#> #   .dy_communication_actor <dbl>, .dy_communication_partner <dbl>
```
…
