…
    #                                   deviation: person's momentary deviation
    #                                   from the dyad average
    #   .i_{pred}_cbp_dyad_mean         between-person dyad-mean predictor:
    #                                   dyad's stable usual level, grand-mean
    #                                   centered
    #   .i_{pred}_cbp_within_dyad_dev
    #                                   DIM between-person within-dyad predictor
    #                                   deviation: person's stable difference from
    #                                   the dyad's usual level
    #   .i_dsm_role_contrast            DSM +0.5/-0.5 directional role contrast
    #   .i_{pred}_cwp_within_dyad_diff   DSM within-person signed predictor difference
    #   .i_{pred}_cbp_within_dyad_diff   DSM between-person signed predictor difference
    #
    # Dropped incomplete dyads: 14 dyads, with IDs: 12, 18, 44, 51, 60, 72, 80, 91, 104, 110, ... and 4 more
    # A tibble: 5,600 x 17
       personID coupleID diaryday gender closeness provided_support .i_composition ...
          <int>    <int>    <int> <fct>      <dbl>            <dbl> <fct>          ...
     1        1        1        0 female      5.91             4.72 female_x_male  ...
     2        1        1        1 female      6.10             5.01 female_x_male  ...
     3        1        1        2 female      5.44             4.63 female_x_male  ...
    # i 5,597 more rows
    ```
…
