…
#> #   .i_{pred}_actor        APIM actor predictor: actor's original predictor
#> #                          values
#> #   .i_{pred}_partner      APIM partner predictor: partner's original predictor
#> #                          values
#> #   .i_{pred}_cwp_actor    APIM within-person actor predictor: actor's
#> #                          momentary deviations from their usual level
#> #   .i_{pred}_cwp_partner  APIM within-person partner predictor: partner's
#> #                          momentary deviations from their usual level
#> #   .i_{pred}_cbp_actor    APIM between-person actor predictor: actor's stable
#> #                          difference from the average person's usual level
#> #   .i_{pred}_cbp_partner  APIM between-person partner predictor: partner's
#> #                          stable difference from the average person's usual
#> #                          level
#> #
#> # A tibble: 1,120 × 18
#>    personID coupleID diaryday gender physical_activity provided_support
#>       <int>    <int>    <int> <fct>              <dbl>            <dbl>
#>  1        1        1        0 female              4.29             4.73
#>  2        1        1        1 female              9.52             4.46
#>  3        1        1        2 female             10.5              3.79
#>  4        1        1        3 female              7.63             4.33
#>  5        1        1        4 female              6.77             4.61
#>  6        1        1        5 female             26.8              5.56
#>  7        1        1        6 female              0                4.91
#>  8        1        1        7 female              0                4.06
#>  9        1        1        8 female             10.2              4.53
#> 10        1        1        9 female              0                3.72
#> # ℹ 1,110 more rows
#> # ℹ 12 more variables: .i_composition <fct>, .i_composition_role <fct>,
#> #   .i_is_female_x_male_female <dbl>, .i_is_female_x_male_male <dbl>,
#> #   .i_provided_support_cwp <dbl>, .i_provided_support_cbp <dbl>,
#> #   .i_provided_support_actor <dbl>, .i_provided_support_partner <dbl>,
#> #   .i_provided_support_cwp_actor <dbl>, .i_provided_support_cwp_partner <dbl>,
#> #   .i_provided_support_cbp_actor <dbl>, …
…
#> #   .i_{pred}_actor        APIM actor predictor: actor's original predictor
#> #                          values
#> #   .i_{pred}_partner      APIM partner predictor: partner's original predictor
#> #                          values
#> #   .i_{pred}_cwp_actor    APIM within-person actor predictor: actor's
#> #                          momentary deviations from their usual level
#> #   .i_{pred}_cwp_partner  APIM within-person partner predictor: partner's
#> #                          momentary deviations from their usual level
#> #   .i_{pred}_cbp_actor    APIM between-person actor predictor: actor's stable
#> #                          difference from the average person's usual level
#> #   .i_{pred}_cbp_partner  APIM between-person partner predictor: partner's
#> #                          stable difference from the average person's usual
#> #                          level
#> #
#> # A tibble: 1,120 × 18
#>    personID coupleID diaryday gender physical_activity provided_support
#>       <int>    <int>    <int> <fct>              <dbl>            <dbl>
#>  1        1        1        0 female              4.29             4.73
#>  2        1        1        1 female              9.52             4.46
#>  3        1        1        2 female             10.5              3.79
#>  4        1        1        3 female              7.63             4.33
#>  5        1        1        4 female              6.77             4.61
#>  6        1        1        5 female             26.8              5.56
#>  7        1        1        6 female              0                4.91
#>  8        1        1        7 female              0                4.06
#>  9        1        1        8 female             10.2              4.53
#> 10        1        1        9 female              0                3.72
#> # ℹ 1,110 more rows
#> # ℹ 12 more variables: .i_composition <fct>, .i_composition_role <fct>,
#> #   .i_is_assumed_exchangeable <dbl>,
#> #   .i_diff_assumed_exchangeable_arbitrary <dbl>,
#> #   .i_provided_support_cwp <dbl>, .i_provided_support_cbp <dbl>,
#> #   .i_provided_support_actor <dbl>, .i_provided_support_partner <dbl>,
#> #   .i_provided_support_cwp_actor <dbl>, …
…
