Actor-Partner Interdependence Model (APIM) • interdep
…
#> # Structure: group = coupleID, member = personID, role = gender
#> #
#> # Dyad compositions:
#> # female_x_male distinguishable 120 dyads
#> #
#> # Added columns:
#> #   .i_composition       inferred dyad composition
#> #   .i_composition_role  composition-specific member role
#> #   .i_is_*              composition-role indicator columns
#> #   .i_*_raw_actor       APIM actor predictor: actor's original predictor
#> #                        values
#> #   .i_*_raw_partner     APIM partner predictor: partner's original predictor
#> #                        values
#> #
#> # A tibble: 240 × 11
#>    personID coupleID gender motivation physical_activity .i_composition
#>       <int>    <int> <chr>       <dbl>             <dbl> <fct>         
#>  1        1        1 female    -1.34                4.03 female_x_male 
#>  2        2        1 male      -0.938               3.43 female_x_male 
#>  3        3        2 female    -0.637               3.08 female_x_male 
#>  4        4        2 male       0.700              13.7  female_x_male 
#>  5        5        3 female    -0.608               7.81 female_x_male 
#>  6        6        3 male      -0.646               7.08 female_x_male 
#>  7        7        4 female    -0.0316              1.45 female_x_male 
#>  8        8        4 male       0.380              23.3  female_x_male 
#>  9        9        5 female     0.575               3.98 female_x_male 
#> 10       10        5 male       1.77               20.1  female_x_male 
#> # ℹ 230 more rows
#> # ℹ 5 more variables: .i_composition_role <fct>,
#> #   .i_is_female_x_male_female <dbl>, .i_is_female_x_male_male <dbl>,
#> #   .i_motivation_raw_actor <dbl>, .i_motivation_raw_partner <dbl>
…
#> # assumed_exchangeable exchangeable 120 dyads
#> #
#> # Added columns:
#> #   .i_composition       inferred dyad composition
#> #   .i_composition_role  composition-specific member role
#> #   .i_is_*              composition-role indicator columns
#> #   .i_diff_*            composition-specific sum-diff contrasts; 0 for
#> #                        distinguishable dyads or other exchangeable
#> #                        compositions
#> #   .i_*_raw_actor       APIM actor predictor: actor's original predictor
#> #                        values
#> #   .i_*_raw_partner     APIM partner predictor: partner's original predictor
#> #                        values
#> #
#> # A tibble: 240 × 11
#>    personID coupleID gender motivation physical_activity .i_composition      
#>       <int>    <int> <fct>       <dbl>             <dbl> <fct>               
#>  1        1        1 female    -1.34                4.03 assumed_exchangeable
#>  2        2        1 male      -0.938               3.43 assumed_exchangeable
#>  3        3        2 female    -0.637               3.08 assumed_exchangeable
#>  4        4        2 male       0.700              13.7  assumed_exchangeable
#>  5        5        3 female    -0.608               7.81 assumed_exchangeable
#>  6        6        3 male      -0.646               7.08 assumed_exchangeable
#>  7        7        4 female    -0.0316              1.45 assumed_exchangeable
#>  8        8        4 male       0.380              23.3  assumed_exchangeable
#>  9        9        5 female     0.575               3.98 assumed_exchangeable
#> 10       10        5 male       1.77               20.1  assumed_exchangeable
#> # ℹ 230 more rows
#> # ℹ 5 more variables: .i_composition_role <fct>,
#> #   .i_is_assumed_exchangeable <dbl>, .i_diff_assumed_exchangeable <dbl>,
#> #   .i_motivation_raw_actor <dbl>, .i_motivation_raw_partner <dbl>
…
