Dyad-Individual Model • interdep
…
#> #   .i_composition_role             composition-specific member role
#> #   .i_is_*                         composition-role indicator columns
#> #   .i_diff_*                       composition-specific sum-diff contrasts; 0
#> #                                   for distinguishable dyads or other
#> #                                   exchangeable compositions
#> #   .i_*_raw_actor                  APIM actor predictor: actor's original
#> #                                   predictor values
#> #   .i_*_raw_partner                APIM partner predictor: partner's original
#> #                                   predictor values
#> #   .i_*_raw_dyad_mean_gmc          DIM dyad-mean predictor: dyad's average
#> #                                   predictor level, grand-mean centered
#> #   .i_*_raw_within_dyad_deviation  DIM within-dyad predictor deviation:
#> #                                   person's difference from the dyad average
#> #
#> # A tibble: 190 × 13
#>    personID coupleID gender communication satisfaction .i_composition      
#>       <int>    <int> <fct>          <dbl>        <dbl> <fct>               
#>  1        1        1 female          4.79        4.37  assumed_exchangeable
#>  2        2        1 male            3.80        2.34  assumed_exchangeable
#>  3        3        2 female          2.91        2.44  assumed_exchangeable
#>  4        4        2 male            6.51        6.08  assumed_exchangeable
#>  5        5        3 female          5.70        5.87  assumed_exchangeable
#>  6        6        3 male            8.22        9.66  assumed_exchangeable
#>  7        7        4 female          5.28        6.50  assumed_exchangeable
#>  8        8        4 male            4.89        3.08  assumed_exchangeable
#>  9        9        5 female          6.01        7.41  assumed_exchangeable
#> 10       10        5 male            4.32        1.47  assumed_exchangeable
#> 11       11        6 female          7.74        7.85  assumed_exchangeable
#> 12       12        6 male            6.57        9.84  assumed_exchangeable
#> 13       13        7 female          5.37        4.82  assumed_exchangeable
#> 14       14        7 male            5.79        6.15  assumed_exchangeable
#> 15       15        8 female          3.62        2.33  assumed_exchangeable
#> 16       16        8 male            3.21       -1.35  assumed_exchangeable
#> 17       17        9 female          4.42        4.96  assumed_exchangeable
#> 18       18        9 male            3.85        1.56  assumed_exchangeable
#> 19       19       10 female          5.22        4.23  assumed_exchangeable
#> 20       20       10 male            3.66       -0.496 assumed_exchangeable
#> # ℹ 170 more rows
#> # ℹ 7 more variables: .i_composition_role <fct>,
#> #   .i_is_assumed_exchangeable <dbl>, .i_diff_assumed_exchangeable <dbl>,
#> #   .i_communication_raw_actor <dbl>, .i_communication_raw_partner <dbl>,
#> #   .i_communication_raw_dyad_mean_gmc <dbl>,
#> #   .i_communication_raw_within_dyad_deviation <dbl>
…
#> #   .i_composition_role             composition-specific member role
#> #   .i_is_*                         composition-role indicator columns
#> #   .i_diff_*                       composition-specific sum-diff contrasts; 0
#> #                                   for distinguishable dyads or other
#> #                                   exchangeable compositions
#> #   .i_*_raw_actor                  APIM actor predictor: actor's original
#> #                                   predictor values
#> #   .i_*_raw_partner                APIM partner predictor: partner's original
#> #                                   predictor values
#> #   .i_*_raw_dyad_mean_gmc          DIM dyad-mean predictor: dyad's average
#> #                                   predictor level, grand-mean centered
#> #   .i_*_raw_within_dyad_deviation  DIM within-dyad predictor deviation:
#> #                                   person's difference from the dyad average
#> #
#> # A tibble: 400 × 12
#>   personID coupleID gender satisfaction .i_composition   .i_composition_role
#>      <int>    <int> <fct>         <dbl> <fct>            <fct>              
#> 1      241      121 female         5.32 same-sex-couples same-sex-couples   
#> 2      242      121 female         5.37 same-sex-couples same-sex-couples   
#> 3      243      122 female         5.99 same-sex-couples same-sex-couples   
#> 4      244      122 female         6.93 same-sex-couples same-sex-couples   
#> # ℹ 396 more rows
#> # ℹ 6 more variables: .i_is_same_sex_couples <dbl>,
#> #   .i_diff_same_sex_couples <dbl>, .i_satisfaction_raw_actor <dbl>,
#> #   .i_satisfaction_raw_partner <dbl>, .i_satisfaction_raw_dyad_mean_gmc <dbl>,
#> #   .i_satisfaction_raw_within_dyad_deviation <dbl>
…
#> #   .i_composition_role             composition-specific member role
#> #   .i_is_*                         composition-role indicator columns
#> #   .i_diff_*                       composition-specific sum-diff contrasts; 0
#> #                                   for distinguishable dyads or other
#> #                                   exchangeable compositions
#> #   .i_*_raw_actor                  APIM actor predictor: actor's original
#> #                                   predictor values
#> #   .i_*_raw_partner                APIM partner predictor: partner's original
#> #                                   predictor values
#> #   .i_*_raw_dyad_mean_gmc          DIM dyad-mean predictor: dyad's average
#> #                                   predictor level, grand-mean centered
#> #   .i_*_raw_within_dyad_deviation  DIM within-dyad predictor deviation:
#> #                                   person's difference from the dyad average
#> #
#> # A tibble: 240 × 12
#>   personID coupleID gender satisfaction .i_composition .i_composition_role
#>      <int>    <int> <fct>         <dbl> <fct>          <fct>              
#> 1        1        1 female         4.95 female_x_male  female_x_male      
#> 2        2        1 male           5.26 female_x_male  female_x_male      
#> 3        3        2 female         5.14 female_x_male  female_x_male      
#> 4        4        2 male           3.11 female_x_male  female_x_male      
#> # ℹ 236 more rows
#> # ℹ 6 more variables: .i_is_female_x_male <dbl>, .i_diff_female_x_male <dbl>,
#> #   .i_satisfaction_raw_actor <dbl>, .i_satisfaction_raw_partner <dbl>,
#> #   .i_satisfaction_raw_dyad_mean_gmc <dbl>,
#> #   .i_satisfaction_raw_within_dyad_deviation <dbl>
…
#> #                                   partner's stable difference from the
#> #                                   average person's usual level
#> #   .i_*_cwp_dyad_mean              DIM within-person dyad-mean predictor:
#> #                                   shared momentary deviations in the dyad
#> #   .i_*_cwp_within_dyad_deviation  DIM within-person within-dyad predictor
#> #                                   deviation: person's momentary deviation
#> #                                   from the dyad average
#> #   .i_*_cbp_dyad_mean              DIM between-person dyad-mean predictor:
#> #                                   dyad's stable usual level, grand-mean
#> #                                   centered
#> #   .i_*_cbp_within_dyad_deviation  DIM between-person within-dyad predictor
#> #                                   deviation: person's stable difference from
#> #                                   the dyad's usual level
#> #
#> # A tibble: 1,120 × 20
#>    personID coupleID diaryday gender closeness provided_support .i_composition  
#>       <int>    <int>    <int> <fct>      <dbl>            <dbl> <fct>           
#>  1        1        1        0 female      5.03             4.30 assumed_exchang…
#>  2        1        1        1 female      5.64             4.24 assumed_exchang…
#>  3        1        1        2 female      5.49             3.54 assumed_exchang…
#>  4        1        1        3 female      6.71             5.04 assumed_exchang…
#>  5        1        1        4 female      5.61             4.74 assumed_exchang…
#>  6        1        1        5 female      6.11             4.72 assumed_exchang…
#>  7        1        1        6 female      6.96             5.12 assumed_exchang…
#>  8        1        1        7 female      7.03             5.21 assumed_exchang…
#>  9        1        1        8 female      8.07             5.20 assumed_exchang…
#> 10        1        1        9 female      4.87             4.69 assumed_exchang…
#> # ℹ 1,110 more rows
#> # ℹ 13 more variables: .i_composition_role <fct>,
#> #   .i_is_assumed_exchangeable <dbl>, .i_diff_assumed_exchangeable <dbl>,
#> #   .i_provided_support_cwp <dbl>, .i_provided_support_cbp <dbl>,
#> #   .i_provided_support_cwp_actor <dbl>, .i_provided_support_cwp_partner <dbl>,
#> #   .i_provided_support_cbp_actor <dbl>, .i_provided_support_cbp_partner <dbl>,
#> #   .i_provided_support_cwp_dyad_mean <dbl>, …
…
