…
#> #   .i_is_{comp-role}                composition-role indicator columns
#> #   .i_diff_{comp}                   composition-specific sum-diff contrasts
#> #                                    with arbitrary direction; 0 for
#> #                                    distinguishable dyads or other
#> #                                    exchangeable compositions
#> #   .i_{pred}_actor                  APIM actor predictor: actor's original
#> #                                    predictor values
#> #   .i_{pred}_partner                APIM partner predictor: partner's original
#> #                                    predictor values
#> #   .i_{pred}_dyad_mean_gmc          DIM dyad-mean predictor: dyad's average
#> #                                    predictor level, grand-mean centered
#> #   .i_{pred}_within_dyad_deviation  DIM within-dyad predictor deviation:
#> #                                    person's difference from the dyad average
#> #
#> # A tibble: 190 × 13
#>   personID coupleID gender communication satisfaction .i_composition      
#>      <int>    <int> <fct>          <dbl>        <dbl> <fct>               
#> 1        1        1 female          4.79         4.37 assumed_exchangeable
#> 2        2        1 male            3.80         2.34 assumed_exchangeable
#> 3        3        2 female          2.91         2.44 assumed_exchangeable
#> 4        4        2 male            6.51         6.08 assumed_exchangeable
#> # ℹ 186 more rows
#> # ℹ 7 more variables: .i_composition_role <fct>,
#> #   .i_is_assumed_exchangeable <dbl>,
#> #   .i_diff_assumed_exchangeable_arbitrary <dbl>, .i_communication_actor <dbl>,
#> #   .i_communication_partner <dbl>, .i_communication_dyad_mean_gmc <dbl>,
#> #   .i_communication_within_dyad_deviation <dbl>
```
…
