Dyadic Score Model (DSM) • interdep
…
#> # Dyad compositions:
#> # female_x_male distinguishable 95 dyads
#> #
#> # Added columns:
#> #   .i_composition             inferred dyad composition
#> #   .i_composition_role        composition-specific member role
#> #   .i_is_{comp-role}          composition-role indicator columns
#> #   .i_dsm_role_contrast       DSM role contrast: +0.5 for the first declared
#> #                              role and -0.5 for the second declared role
#> #   .i_{pred}_dyad_mean_gmc    dyad-mean predictor: dyad's average predictor
#> #                              level, grand-mean centered
#> #   .i_{pred}_dyad_difference  DSM signed predictor difference: first declared
#> #                              role minus second declared role
#> #
#> # A tibble: 190 × 12
#>   personID coupleID gender communication satisfaction .i_composition
#>      <int>    <int> <fct>          <dbl>        <dbl> <fct>         
#> 1        1        1 female          4.79         4.37 female_x_male 
#> 2        2        1 male            3.80         2.34 female_x_male 
#> 3        3        2 female          2.91         2.44 female_x_male 
#> 4        4        2 male            6.51         6.08 female_x_male 
#> # ℹ 186 more rows
#> # ℹ 6 more variables: .i_composition_role <fct>,
#> #   .i_is_female_x_male_female <dbl>, .i_is_female_x_male_male <dbl>,
#> #   .i_dsm_role_contrast <dbl>, .i_communication_dyad_mean_gmc <dbl>,
#> #   .i_communication_dyad_difference <dbl>
…
