Getting Started • interdep
…
#> # Structure: group = coupleID, member = personID, role = gender
#> #
#> # Dyad compositions:
#> # female_x_male distinguishable 95 dyads
#> #
#> # Added columns:
#> #   .i_composition       inferred dyad composition
#> #   .i_composition_role  composition-specific member role
#> #   .i_is_*              composition-role indicator columns
#> #   .i_*_raw_actor       APIM actor predictor: actor's original predictor
#> #                        values
#> #   .i_*_raw_partner     APIM partner predictor: partner's original predictor
#> #                        values
#> #
#> # A tibble: 190 × 11
#>    personID coupleID gender communication satisfaction .i_composition
#>       <int>    <int> <chr>          <dbl>        <dbl> <fct>         
#>  1        1        1 female          4.79        4.37  female_x_male 
#>  2        2        1 male            3.80        2.34  female_x_male 
#>  3        3        2 female          2.91        2.44  female_x_male 
#>  4        4        2 male            6.51        6.08  female_x_male 
#>  5        5        3 female          5.70        5.87  female_x_male 
#>  6        6        3 male            8.22        9.66  female_x_male 
#>  7        7        4 female          5.28        6.50  female_x_male 
#>  8        8        4 male            4.89        3.08  female_x_male 
#>  9        9        5 female          6.01        7.41  female_x_male 
#> 10       10        5 male            4.32        1.47  female_x_male 
#> 11       11        6 female          7.74        7.85  female_x_male 
#> 12       12        6 male            6.57        9.84  female_x_male 
#> 13       13        7 female          5.37        4.82  female_x_male 
#> 14       14        7 male            5.79        6.15  female_x_male 
#> 15       15        8 female          3.62        2.33  female_x_male 
#> 16       16        8 male            3.21       -1.35  female_x_male 
#> 17       17        9 female          4.42        4.96  female_x_male 
#> 18       18        9 male            3.85        1.56  female_x_male 
#> 19       19       10 female          5.22        4.23  female_x_male 
#> 20       20       10 male            3.66       -0.496 female_x_male 
#> # ℹ 170 more rows
#> # ℹ 5 more variables: .i_composition_role <fct>,
#> #   .i_is_female_x_male_female <dbl>, .i_is_female_x_male_male <dbl>,
#> #   .i_communication_raw_actor <dbl>, .i_communication_raw_partner <dbl>
…
#> # assumed_exchangeable exchangeable 95 dyads
#> #
#> # Added columns:
#> #   .i_composition       inferred dyad composition
#> #   .i_composition_role  composition-specific member role
#> #   .i_is_*              composition-role indicator columns
#> #   .i_diff_*            composition-specific sum-diff contrasts; 0 for
#> #                        distinguishable dyads or other exchangeable
#> #                        compositions
#> #   .i_*_raw_actor       APIM actor predictor: actor's original predictor
#> #                        values
#> #   .i_*_raw_partner     APIM partner predictor: partner's original predictor
#> #                        values
#> #
#> # A tibble: 190 × 11
#>    personID coupleID gender communication satisfaction .i_composition      
#>       <int>    <int> <fct>          <dbl>        <dbl> <fct>               
#>  1        1        1 female          4.79         4.37 assumed_exchangeable
#>  2        2        1 male            3.80         2.34 assumed_exchangeable
#>  3        3        2 female          2.91         2.44 assumed_exchangeable
#>  4        4        2 male            6.51         6.08 assumed_exchangeable
#>  5        5        3 female          5.70         5.87 assumed_exchangeable
#>  6        6        3 male            8.22         9.66 assumed_exchangeable
#>  7        7        4 female          5.28         6.50 assumed_exchangeable
#>  8        8        4 male            4.89         3.08 assumed_exchangeable
#>  9        9        5 female          6.01         7.41 assumed_exchangeable
#> 10       10        5 male            4.32         1.47 assumed_exchangeable
#> # ℹ 180 more rows
#> # ℹ 5 more variables: .i_composition_role <fct>,
#> #   .i_is_assumed_exchangeable <dbl>, .i_diff_assumed_exchangeable <dbl>,
#> #   .i_communication_raw_actor <dbl>, .i_communication_raw_partner <dbl>
…
#> #   .i_*_cwp             within-person predictor: momentary deviations from
#> #                        each person's usual level
#> #   .i_*_cbp             between-person predictor: stable differences from the
#> #                        average person's usual level
#> #   .i_*_cwp_actor       APIM within-person actor predictor: actor's momentary
#> #                        deviations from their usual level
#> #   .i_*_cwp_partner     APIM within-person partner predictor: partner's
#> #                        momentary deviations from their usual level
#> #   .i_*_cbp_actor       APIM between-person actor predictor: actor's stable
#> #                        difference from the average person's usual level
#> #   .i_*_cbp_partner     APIM between-person partner predictor: partner's
#> #                        stable difference from the average person's usual
#> #                        level
#> #
#> # A tibble: 1,120 × 16
#>    personID coupleID diaryday gender closeness provided_support .i_composition
#>       <int>    <int>    <int> <chr>      <dbl>            <dbl> <fct>         
#>  1        1        1        0 female      5.03             4.30 female_x_male 
#>  2        1        1        1 female      5.64             4.24 female_x_male 
#>  3        1        1        2 female      5.49             3.54 female_x_male 
#>  4        1        1        3 female      6.71             5.04 female_x_male 
#>  5        1        1        4 female      5.61             4.74 female_x_male 
#>  6        1        1        5 female      6.11             4.72 female_x_male 
#>  7        1        1        6 female      6.96             5.12 female_x_male 
#>  8        1        1        7 female      7.03             5.21 female_x_male 
#>  9        1        1        8 female      8.07             5.20 female_x_male 
#> 10        1        1        9 female      4.87             4.69 female_x_male 
#> # ℹ 1,110 more rows
#> # ℹ 9 more variables: .i_composition_role <fct>,
#> #   .i_is_female_x_male_female <dbl>, .i_is_female_x_male_male <dbl>,
#> #   .i_provided_support_cwp <dbl>, .i_provided_support_cbp <dbl>,
#> #   .i_provided_support_cwp_actor <dbl>, .i_provided_support_cwp_partner <dbl>,
#> #   .i_provided_support_cbp_actor <dbl>, .i_provided_support_cbp_partner <dbl>
…
#> #   .i_*_cwp             within-person predictor: momentary deviations from
#> #                        each person's usual level
#> #   .i_*_cbp             between-person predictor: stable differences from the
#> #                        average person's usual level
#> #   .i_*_cwp_actor       APIM within-person actor predictor: actor's momentary
#> #                        deviations from their usual level
#> #   .i_*_cwp_partner     APIM within-person partner predictor: partner's
#> #                        momentary deviations from their usual level
#> #   .i_*_cbp_actor       APIM between-person actor predictor: actor's stable
#> #                        difference from the average person's usual level
#> #   .i_*_cbp_partner     APIM between-person partner predictor: partner's
#> #                        stable difference from the average person's usual
#> #                        level
#> #
#> # A tibble: 1,120 × 16
#>    personID coupleID diaryday gender closeness provided_support .i_composition
#>       <int>    <int>    <int> <chr>      <dbl>            <dbl> <fct>         
#>  1        1        1        0 female      5.03             4.30 female_x_male 
#>  2        1        1        1 female      5.64             4.24 female_x_male 
#>  3        1        1        2 female      5.49             3.54 female_x_male 
#>  4        1        1        3 female      6.71             5.04 female_x_male 
#>  5        1        1        4 female      5.61             4.74 female_x_male 
#>  6        1        1        5 female      6.11             4.72 female_x_male 
#>  7        1        1        6 female      6.96             5.12 female_x_male 
#>  8        1        1        7 female      7.03             5.21 female_x_male 
#>  9        1        1        8 female      8.07             5.20 female_x_male 
#> 10        1        1        9 female      4.87             4.69 female_x_male 
#> # ℹ 1,110 more rows
#> # ℹ 9 more variables: .i_composition_role <fct>, .i_is_female_x_male <dbl>,
#> #   .i_diff_female_x_male <dbl>, .i_provided_support_cwp <dbl>,
#> #   .i_provided_support_cbp <dbl>, .i_provided_support_cwp_actor <dbl>,
#> #   .i_provided_support_cwp_partner <dbl>, .i_provided_support_cbp_actor <dbl>,
#> #   .i_provided_support_cbp_partner <dbl>
…
summary(ild_exchangeable_model)

Mixed-composition dyads

example_dyadic_crosssectional_mixed contains three dyad
compositions in the same data object: distinguishable female-male dyads
and exchangeable female-female and male-male dyads.

Here, we focus on the preparation steps that are possible with
interdep. For model formulas that combine distinguishable
and exchangeable dyads in the same analysis, see the Actor-Partner Interdependence Model vignette.

print(example_dyadic_crosssectional_mixed)
#> # A tibble: 640 × 4
#>    personID coupleID gender satisfaction
#>       <int>    <int> <fct>         <dbl>
#>  1        1        1 female         4.95
#>  2        2        1 male           5.26
#>  3        3        2 female         5.14
#>  4        4        2 male           3.11
#>  5        5        3 female         6.40
#>  6        6        3 male           3.45
#>  7        7        4 female         4.16
#>  8        8        4 male           6.47
#>  9        9        5 female         5.97
#> 10       10        5 male           5.44
#> # ℹ 630 more rows
…
#> #
#> # Dyad compositions:
#> # female_x_female exchangeable    100 dyads
#> # female_x_male   distinguishable 120 dyads
#> # male_x_male     exchangeable    100 dyads
#> #
#> # Added columns:
#> #   .i_composition       inferred dyad composition
#> #   .i_composition_role  composition-specific member role
#> #   .i_is_*              composition-role indicator columns
#> #   .i_diff_*            composition-specific sum-diff contrasts; 0 for
#> #                        distinguishable dyads or other exchangeable
#> #                        compositions
#> #
#> # A tibble: 640 × 12
#>    personID coupleID gender satisfaction .i_composition .i_composition_role 
#>       <int>    <int> <chr>         <dbl> <fct>          <fct>               
#>  1        1        1 female         4.95 female_x_male  female_x_male_female
#>  2        2        1 male           5.26 female_x_male  female_x_male_male  
#>  3        3        2 female         5.14 female_x_male  female_x_male_female
#>  4        4        2 male           3.11 female_x_male  female_x_male_male  
#>  5        5        3 female         6.40 female_x_male  female_x_male_female
#>  6        6        3 male           3.45 female_x_male  female_x_male_male  
#>  7        7        4 female         4.16 female_x_male  female_x_male_female
#>  8        8        4 male           6.47 female_x_male  female_x_male_male  
#>  9        9        5 female         5.97 female_x_male  female_x_male_female
#> 10       10        5 male           5.44 female_x_male  female_x_male_male  
#> # ℹ 630 more rows
#> # ℹ 6 more variables: .i_is_female_x_female <dbl>,
#> #   .i_is_female_x_male_female <dbl>, .i_is_female_x_male_male <dbl>,
#> #   .i_is_male_x_male <dbl>, .i_diff_female_x_female <dbl>,
#> #   .i_diff_male_x_male <dbl>
…
#> # Dyad compositions:
#> # female_x_male          distinguishable 120 dyads
#> # same-sex (pooled)      exchangeable    200 dyads
#> #   female_x_female
#> #   male_x_male
#> #
#> # Added columns:
#> #   .i_composition       inferred dyad composition
#> #   .i_composition_role  composition-specific member role
#> #   .i_is_*              composition-role indicator columns
#> #   .i_diff_*            composition-specific sum-diff contrasts; 0 for
#> #                        distinguishable dyads or other exchangeable
#> #                        compositions
#> #
#> # A tibble: 640 × 10
#>    personID coupleID gender satisfaction .i_composition .i_composition_role 
#>       <int>    <int> <chr>         <dbl> <fct>          <fct>               
#>  1        1        1 female         4.95 female_x_male  female_x_male_female
#>  2        2        1 male           5.26 female_x_male  female_x_male_male  
#>  3        3        2 female         5.14 female_x_male  female_x_male_female
#>  4        4        2 male           3.11 female_x_male  female_x_male_male  
#>  5        5        3 female         6.40 female_x_male  female_x_male_female
#>  6        6        3 male           3.45 female_x_male  female_x_male_male  
#>  7        7        4 female         4.16 female_x_male  female_x_male_female
#>  8        8        4 male           6.47 female_x_male  female_x_male_male  
#>  9        9        5 female         5.97 female_x_male  female_x_male_female
#> 10       10        5 male           5.44 female_x_male  female_x_male_male  
#> # ℹ 630 more rows
#> # ℹ 4 more variables: .i_is_female_x_male_female <dbl>,
#> #   .i_is_female_x_male_male <dbl>, .i_is_same_sex <dbl>,
#> #   .i_diff_same_sex <dbl>
…
#> # Dyad compositions:
#> # female_x_female          exchangeable 100 dyads
#> # same-sex (pooled)        exchangeable 220 dyads
#> #   female_x_male
#> #   male_x_male
#> #
#> # Added columns:
#> #   .i_composition       inferred dyad composition
#> #   .i_composition_role  composition-specific member role
#> #   .i_is_*              composition-role indicator columns
#> #   .i_diff_*            composition-specific sum-diff contrasts; 0 for
#> #                        distinguishable dyads or other exchangeable
#> #                        compositions
#> #
#> # A tibble: 640 × 10
#>    personID coupleID gender satisfaction .i_composition .i_composition_role
#>       <int>    <int> <chr>         <dbl> <fct>          <fct>              
#>  1        1        1 female         4.95 same-sex       same-sex           
#>  2        2        1 male           5.26 same-sex       same-sex           
#>  3        3        2 female         5.14 same-sex       same-sex           
#>  4        4        2 male           3.11 same-sex       same-sex           
#>  5        5        3 female         6.40 same-sex       same-sex           
#>  6        6        3 male           3.45 same-sex       same-sex           
#>  7        7        4 female         4.16 same-sex       same-sex           
#>  8        8        4 male           6.47 same-sex       same-sex           
#>  9        9        5 female         5.97 same-sex       same-sex           
#> 10       10        5 male           5.44 same-sex       same-sex           
#> # ℹ 630 more rows
#> # ℹ 4 more variables: .i_is_female_x_female <dbl>, .i_is_same_sex <dbl>,
#> #   .i_diff_female_x_female <dbl>, .i_diff_same_sex <dbl>
…
