APIMs with Mixed Dyad Compositions • interdep
…
#> #
#> # Dyad compositions:
#> # female_x_female exchangeable    100 dyads
#> # female_x_male   distinguishable 120 dyads
#> # male_x_male     exchangeable    100 dyads
#> #
#> # Added columns:
#> #   .i_composition       inferred dyad composition
#> #   .i_composition_role  composition-specific member role
#> #   .i_is_{comp-role}    composition-role indicator columns
#> #   .i_diff_{comp}       composition-specific sum-diff contrasts with arbitrary
#> #                        direction; 0 for distinguishable dyads or other
#> #                        exchangeable compositions
#> #
#> # A tibble: 640 × 12
#>   personID coupleID gender satisfaction .i_composition .i_composition_role 
#>      <int>    <int> <fct>         <dbl> <fct>          <fct>               
#> 1        1        1 female         4.95 female_x_male  female_x_male_female
#> 2        2        1 male           5.26 female_x_male  female_x_male_male  
#> 3        3        2 female         5.14 female_x_male  female_x_male_female
#> 4        4        2 male           3.11 female_x_male  female_x_male_male  
#> # ℹ 636 more rows
#> # ℹ 6 more variables: .i_is_female_x_female <dbl>,
#> #   .i_is_female_x_male_female <dbl>, .i_is_female_x_male_male <dbl>,
#> #   .i_is_male_x_male <dbl>, .i_diff_female_x_female_arbitrary <dbl>,
#> #   .i_diff_male_x_male_arbitrary <dbl>
…
#> #   .i_{pred}_cwp          within-person predictor: momentary deviations from
#> #                          each person's usual level
#> #   .i_{pred}_cbp          between-person predictor: stable differences from
#> #                          the average person's usual level
#> #   .i_{pred}_cwp_actor    APIM within-person actor predictor: actor's
#> #                          momentary deviations from their usual level
#> #   .i_{pred}_cwp_partner  APIM within-person partner predictor: partner's
#> #                          momentary deviations from their usual level
#> #   .i_{pred}_cbp_actor    APIM between-person actor predictor: actor's stable
#> #                          difference from the average person's usual level
#> #   .i_{pred}_cbp_partner  APIM between-person partner predictor: partner's
#> #                          stable difference from the average person's usual
#> #                          level
#> #
#> # A tibble: 5,600 × 20
#>    personID coupleID diaryday gender closeness provided_support .i_composition
#>       <int>    <int>    <int> <fct>      <dbl>            <dbl> <fct>         
#>  1        1        1        0 female      3.79             4.85 female_x_male 
#>  2        1        1        1 female      2.89             4.13 female_x_male 
#>  3        1        1        2 female      4.20             4.62 female_x_male 
#>  4        1        1        3 female      5.79             5.09 female_x_male 
#>  5        1        1        4 female      3.97             4.92 female_x_male 
#>  6        1        1        5 female      3.53             4.51 female_x_male 
#>  7        1        1        6 female      4.38             5.09 female_x_male 
#>  8        1        1        7 female      3.51             4.92 female_x_male 
#>  9        1        1        8 female      4.45             4.11 female_x_male 
#> 10        1        1        9 female      3.17             4.01 female_x_male 
#> # ℹ 5,590 more rows
#> # ℹ 13 more variables: .i_composition_role <fct>, .i_is_female_x_female <dbl>,
#> #   .i_is_female_x_male_female <dbl>, .i_is_female_x_male_male <dbl>,
#> #   .i_is_male_x_male <dbl>, .i_diff_female_x_female_arbitrary <dbl>,
#> #   .i_diff_male_x_male_arbitrary <dbl>, .i_provided_support_cwp <dbl>,
#> #   .i_provided_support_cbp <dbl>, .i_provided_support_cwp_actor <dbl>,
#> #   .i_provided_support_cwp_partner <dbl>, …
…
#> #   .i_{pred}_cwp          within-person predictor: momentary deviations from
#> #                          each person's usual level
#> #   .i_{pred}_cbp          between-person predictor: stable differences from
#> #                          the average person's usual level
#> #   .i_{pred}_cwp_actor    APIM within-person actor predictor: actor's
#> #                          momentary deviations from their usual level
#> #   .i_{pred}_cwp_partner  APIM within-person partner predictor: partner's
#> #                          momentary deviations from their usual level
#> #   .i_{pred}_cbp_actor    APIM between-person actor predictor: actor's stable
#> #                          difference from the average person's usual level
#> #   .i_{pred}_cbp_partner  APIM between-person partner predictor: partner's
#> #                          stable difference from the average person's usual
#> #                          level
#> #
#> # A tibble: 5,600 × 20
#>    personID coupleID diaryday gender physical_activity provided_support
#>       <int>    <int>    <int> <fct>              <dbl>            <dbl>
#>  1        1        1        0 female             11.4              3.92
#>  2        1        1        1 female              2.24             3.86
#>  3        1        1        2 female              8.14             4.15
#>  4        1        1        3 female              4.48             3.55
#>  5        1        1        4 female              2.39             4.13
#>  6        1        1        5 female             10.1              3.50
#>  7        1        1        6 female              4.95             4.29
#>  8        1        1        7 female             NA               NA   
#>  9        1        1        8 female              0                4.06
#> 10        1        1        9 female              5.59             4.41
#> # ℹ 5,590 more rows
#> # ℹ 14 more variables: .i_composition <fct>, .i_composition_role <fct>,
#> #   .i_is_female_x_female <dbl>, .i_is_female_x_male_female <dbl>,
#> #   .i_is_female_x_male_male <dbl>, .i_is_male_x_male <dbl>,
#> #   .i_diff_female_x_female_arbitrary <dbl>,
#> #   .i_diff_male_x_male_arbitrary <dbl>, .i_provided_support_cwp <dbl>,
#> #   .i_provided_support_cbp <dbl>, .i_provided_support_cwp_actor <dbl>, …
…
