…
#> #   .i_{pred}_raw_partner                APIM partner predictor: partner's
#> #                                        original predictor values
#> #   .i_{pred}_raw_dyad_mean_gmc          DIM dyad-mean predictor: dyad's
#> #                                        average predictor level, grand-mean
#> #                                        centered
#> #   .i_{pred}_raw_within_dyad_deviation  DIM within-dyad predictor deviation:
#> #                                        person's difference from the dyad
#> #                                        average
#> #   .i_{out}_raw_dyad_mean               DSM dyad-mean outcome: dyad's average
#> #                                        outcome level
#> #   .i_{out}_raw_within_dyad_deviation   DSM within-dyad outcome deviation:
#> #                                        person's difference from the dyad
#> #                                        average
#> #
#> # A tibble: 190 × 15
#>   personID coupleID gender communication satisfaction .i_composition      
#>      <int>    <int> <fct>          <dbl>        <dbl> <fct>               
#> 1        1        1 female          4.79         4.37 assumed_exchangeable
#> 2        2        1 male            3.80         2.34 assumed_exchangeable
#> 3        3        2 female          2.91         2.44 assumed_exchangeable
#> 4        4        2 male            6.51         6.08 assumed_exchangeable
#> # ℹ 186 more rows
#> # ℹ 9 more variables: .i_composition_role <fct>,
#> #   .i_is_assumed_exchangeable <dbl>,
#> #   .i_diff_assumed_exchangeable_arbitrary <dbl>,
#> #   .i_communication_raw_actor <dbl>, .i_communication_raw_partner <dbl>,
#> #   .i_communication_raw_dyad_mean_gmc <dbl>,
#> #   .i_communication_raw_within_dyad_deviation <dbl>, …
```
…
